Add a section to a gp object. — gp_sec • gplate
…
pq <- gp(8, 12, protein_quant) |> gp_sec("has_sample", 3, 19, wrap = TRUE, labels = "sample")

# Sections can be used to label things for tidying
pq |> gp_serve()
#> # A tibble: 96 × 4
#>     .row  .col  value has_sample
#>    <int> <int>  <dbl> <fct>     
#>  1     1     1 0.0691 sample    
#>  2     1     2 0.0801 sample    
#>  3     1     3 0.0978 sample    
#>  4     1     4 0.121  sample    
#>  5     1     5 0.173  sample    
#>  6     1     6 0.240  sample    
#>  7     1     7 0.381  sample    
#>  8     1     8 0.240  sample    
#>  9     1     9 0.259  sample    
#> 10     1    10 0.252  sample    
#> # ℹ 86 more rows
…
